WIDTH=64;
DEPTH=424;

ADDRESS_RADIX=UNS;
DATA_RADIX=UNS;

CONTENT BEGIN
	000  :   00000000000000000033;
	001  :   00000000000000000129;
	002  :   00000000000000000009;
	003  :   00000000000000000015;
	004  :   00000000000000000255;
	005  :   00000000000000000109;
	006  :   00000000000000000040;
	007  :   00000000000000000063;
	008  :   00000000000000000210;
	009  :   00000000000000000069;
	010  :   00000000000000000129;
	011  :   00000000000000000087;
	012  :   00000000000000000059;
	013  :   00000000000000000208;
	014  :   00000000000000000036;
	015  :   00000000000000000194;
	016  :   00000000000000000066;
	017  :   00000000000000000155;
	018  :   00000000000000000000;
	019  :   00000000000000000129;
	020  :   00000000000000000106;
	021  :   00000000000000000249;
	022  :   00000000000000000094;
	023  :   00000000000000000198;
	024  :   00000000000000000045;
	025  :   00000000000000000093;
	026  :   00000000000000000200;
	027  :   00000000000000000089;
	028  :   00000000000000000252;
	029  :   00000000000000000070;
	030  :   00000000000000000212;
	031  :   00000000000000000084;
	032  :   00000000000000000091;
	033  :   00000000000000000150;
	034  :   00000000000000000129;
	035  :   00000000000000000001;
	036  :   12269212617990339651;
	037  :   11740581841416679152;
	038  :   00648771164892298980;
	039  :   16211543682044845728;
	040  :   14355806562047537732;
	041  :   17013211714272895474;
	042  :   16580036177400307459;
	043  :   00437707913105253840;
	044  :   17867739033865339448;
	045  :   17584861260789310985;
	046  :   13462981185961270048;
	047  :   03391791933594151224;
	048  :   13484663541704926769;
	049  :   14694118618963577574;
	050  :   13549115822519957789;
	051  :   18014630566768148414;
	052  :   02019299245596926243;
	053  :   13911645646016154373;
	054  :   10875906196703224589;
	055  :   00863308965567077901;
	056  :   02944196276080010403;
	057  :   01227807020489167133;
	058  :   13673740084995548382;
	059  :   00926312024015968071;
	060  :   12762111685195703304;
	061  :   16356259194489925915;
	062  :   12180564592370659356;
	063  :   01737808837237730000;
	064  :   16200562786821797102;
	065  :   16498090774229739300;
	066  :   16483735490288345357;
	067  :   01586649111578276888;
	068  :   00916419895538943190;
	069  :   01361493487225072679;
	070  :   03731446588132393413;
	071  :   16061769267281793829;
	072  :   01080848629041731602;
	073  :   17726440644208299031;
	074  :   16496380922094745865;
	075  :   18223843354191788799;
	076  :   00433746484411944145;
	077  :   04818868162745595155;
	078  :   17450337915804710627;
	079  :   14705905396032660428;
	080  :   12817522926786034877;
	081  :   05681282309674303758;
	082  :   02178309177383711206;
	083  :   12545540001420523674;
	084  :   00144959488386932264;
	085  :   03967944869655678468;
	086  :   00058521515230818266;
	087  :   00641231784333276650;
	088  :   17729244614362221564;
	089  :   06128826204546593294;
	090  :   17075380373817847562;
	091  :   17797685798757009896;
	092  :   15425404958515616708;
	093  :   05333388799195944969;
	094  :   18015245171955975169;
	095  :   18153729734928956358;
	096  :   15428493344310098750;
	097  :   01291413759935573738;
	098  :   18230013838879166699;
	099  :   16861738590143832780;
	100  :   14562114599304889131;
	101  :   04178199174300432638;
	102  :   16929041934255857169;
	103  :   18236485599453968323;
	104  :   14713808681655471378;
	105  :   03680286261105919759;
	106  :   16420144037099338758;
	107  :   00788679609081660378;
	108  :   16074212449219893998;
	109  :   13617497904238432957;
	110  :   07860205045282773024;
	111  :   00724771813991635391;
	112  :   01452156706549708307;
	113  :   09362414181638671574;
	114  :   00156789159825585944;
	115  :   01523026919685678857;
	116  :   00214248554507982081;
	117  :   14913941766596074466;
	118  :   16510506266659662115;
	119  :   03532508591260110592;
	120  :   02231292749014158541;
	121  :   15782899133379322071;
	122  :   16434194743653834537;
	123  :   00793751669176725506;
	124  :   04311339904151789029;
	125  :   12257949182470908422;
	126  :   14336660774747060744;
	127  :   02382707475353703954;
	128  :   00485829967332329972;
	129  :   16866819291628299791;
	130  :   16902881499681129225;
	131  :   01651468350858139944;
	132  :   03014856270716338373;
	133  :   17372902713457633285;
	134  :   00620662391187035090;
	135  :   02074799113121303359;
	136  :   01437166855180653036;
	137  :   13473049503882343938;
	138  :   06963653480480484800;
	139  :   15557400074459407887;
	140  :   13065485436994129136;
	141  :   00867778488587394289;
	142  :   03444390511855464938;
	143  :   15421142014397307116;
	144  :   17358291240083335123;
	145  :   17945726084078759734;
	146  :   13315764168477760261;
	147  :   15781148393358496742;
	148  :   17377121549267843618;
	149  :   02673485582936379174;
	150  :   14615004320715943441;
	151  :   00713235674149352664;
	152  :   16302199437388565779;
	153  :   03093722311626069746;
	154  :   15702624798973877750;
	155  :   18222386411108230117;
	156  :   15339264707210501855;
	157  :   02528230961123489515;
	158  :   13526001919046962680;
	159  :   01295082800522327276;
	160  :   15631454730851323954;
	161  :   04398926970521849119;
	162  :   11955361538423253515;
	163  :   17860991374303107297;
	164  :   00721961436599881264;
	165  :   05265017833084159261;
	166  :   12238240646996419345;
	167  :   17722248417140995828;
	168  :   15276733264822205182;
	169  :   01140822203592402658;
	170  :   15983571816323141378;
	171  :   00146638279427739611;
	172  :   18428169157168061978;
	173  :   05264126245920767250;
	174  :   15115781336759522339;
	175  :   00568593818757440737;
	176  :   01283781079282817818;
	177  :   09154708433349244665;
	178  :   13744161661596657146;
	179  :   03296106071028867312;
	180  :   17149157535469323978;
	181  :   14558140799831629570;
	182  :   16125706793201097764;
	183  :   01368216721017139703;
	184  :   17077378019105756916;
	185  :   16442349880569346587;
	186  :   00716044784073116687;
	187  :   16641631772120908530;
	188  :   16418482635803723307;
	189  :   02246189070544208665;
	190  :   00993653882329761522;
	191  :   03172482330590117324;
	192  :   17217842944508102902;
	193  :   18161602212449222891;
	194  :   00642866989531857934;
	195  :   02438690346479982055;
	196  :   17288474599422225430;
	197  :   00148351580020992015;
	198  :   00711278530297137899;
	199  :   02740974512233049009;
	200  :   17591363492160336398;
	201  :   01016125790906280428;
	202  :   16713677345111664332;
	203  :   00365602893249375416;
	204  :   00436309329617547510;
	205  :   16859223950175305439;
	206  :   02227533531879233051;
	207  :   03240598162658095844;
	208  :   01088448380061020935;
	209  :   01086204229482125560;
	210  :   02224206426557773280;
	211  :   01807072605547205505;
	212  :   03616904101491831794;
	213  :   16287562914672990705;
	214  :   03819655106413460754;
	215  :   15989192803703598516;
	216  :   01808155491944817672;
	217  :   13105807139151802103;
	218  :   03094280923626275361;
	219  :   01148443008678375982;
	220  :   17212997549975590926;
	221  :   01316738799160652061;
	222  :   18364253110855858216;
	223  :   03681105439684298508;
	224  :   01789392488904726842;
	225  :   02101988902342370068;
	226  :   17006471526621709570;
	227  :   04036081876828559109;
	228  :   18231317911110086116;
	229  :   18095265579460587229;
	230  :   17383016198880097450;
	231  :   17933407672082248463;
	232  :   04300056724498095349;
	233  :   14987958587914447899;
	234  :   17084127074092648640;
	235  :   02373923901742250241;
	236  :   17783930680943900944;
	237  :   14244513818767784359;
	238  :   11027940723292684001;
	239  :   05117427166582662171;
	240  :   00423773480390038986;
	241  :   14410339636472696197;
	242  :   02963598039744889081;
	243  :   13962207886463862305;
	244  :   16280387219279781860;
	245  :   01371817235454090474;
	246  :   16068872942249826308;
	247  :   15696686345816639795;
	248  :   14844096197807359143;
	249  :   17936126109123602666;
	250  :   15971689595118873926;
	251  :   15045946564458499837;
	252  :   00765871313736553759;
	253  :   17943355747279493878;
	254  :   13025229056453500903;
	255  :   04984634941684307422;
	256  :   15619937100948476141;
	257  :   01657549001897999895;
	258  :   13895197784164465669;
	259  :   17141516792091564288;
	260  :   00491218966330581751;
	261  :   00447520873758393121;
	262  :   13303632099562217223;
	263  :   02318482680666638844;
	264  :   16693674994145817798;
	265  :   16575729274255556111;
	266  :   13124849349253008894;
	267  :   03173057438876036865;
	268  :   17202633399090909695;
	269  :   18379769466225033993;
	270  :   17356006393881810953;
	271  :   02886793990662061310;
	272  :   01943595687945881612;
	273  :   00159877773331539952;
	274  :   14237034996091115540;
	275  :   03321447343828624120;
	276  :   14698364731428950471;
	277  :   00014306745338672117;
	278  :   12952255594521275689;
	279  :   01787582426495424288;
	280  :   01292015270675929610;
	281  :   01163598874234979819;
	282  :   12868451913472934937;
	283  :   03671839648786349340;
	284  :   00873155225018817824;
	285  :   01730768642503740965;
	286  :   00265149311205895414;
	287  :   04762824843497377786;
	288  :   10287820912943412669;
	289  :   13984256392905412384;
	290  :   18231079116614785775;
	291  :   16138672053590535947;
	292  :   13543699430404255291;
	293  :   01465846889640221465;
	294  :   12962220675622620418;
	295  :   00222397103683460573;
	296  :   02242486055686947322;
	297  :   00802431321860484376;
	298  :   12896609419815558844;
	299  :   15838383522113727215;
	300  :   16365428855047403720;
	301  :   15878024068870356916;
	302  :   00963782601008016152;
	303  :   17474521928059112771;
	304  :   17738796071001924069;
	305  :   01529039499837840176;
	306  :   17171647084015006416;
	307  :   15140551026680922117;
	308  :   04677994389025981219;
	309  :   17584502524217668874;
	310  :   00667418817492755700;
	311  :   00332144969364097275;
	312  :   17803202100837275327;
	313  :   14336091020357653712;
	314  :   17433766308969514592;
	315  :   15685756976644893718;
	316  :   00519498208612390301;
	317  :   16692572794658658308;
	318  :   16873580519134451761;
	319  :   13825808890791859745;
	320  :   12202747101465229303;
	321  :   16327435152344799156;
	322  :   17380564132745038059;
	323  :   03371655839826316114;
	324  :   17289017621264781009;
	325  :   00075398923069539074;
	326  :   17438490807245476587;
	327  :   17147658845270757387;
	328  :   00503861992232709349;
	329  :   01301234666649341186;
	330  :   16795605336737977616;
	331  :   00287079161370893313;
	332  :   00212799227035847424;
	333  :   17871137616640989178;
	334  :   18016373202298398987;
	335  :   02019584031255227658;
	336  :   00579554434124682001;
	337  :   17799664975590724828;
	338  :   00719480787638479608;
	339  :   02813336898775810573;
	340  :   01666055738528900885;
	341  :   01085412560345633770;
	342  :   18305478754725914874;
	343  :   03825529728535756300;
	344  :   16788031805722518768;
	345  :   18436554748120197367;
	346  :   00508889011323736572;
	347  :   00571388563445845502;
	348  :   18010461068265257176;
	349  :   01510950970454118651;
	350  :   17801032754984190720;
	351  :   00430673164058493181;
	352  :   18376952534463545604;
	353  :   18090969577495073019;
	354  :   16788313255012261647;
	355  :   00507212393026288917;
	356  :   00706470387461656091;
	357  :   00005374464913904581;
	358  :   01157125977041390301;
	359  :   17874234741731821559;
	360  :   00486351462243244567;
	361  :   17586580726020121033;
	362  :   01442218320970233792;
	363  :   18309383073238946802;
	364  :   00508347102162851565;
	365  :   17874522007451075310;
	366  :   00936997255156139261;
	367  :   01369403205228627947;
	368  :   16565928318067677435;
	369  :   00723689770529195776;
	370  :   18232240350097637371;
	371  :   00794052891686342913;
	372  :   00146357101092147222;
	373  :   00436270962775558165;
	374  :   18014654738642370318;
	375  :   00289363903716395979;
	376  :   00502337244737828119;
	377  :   00942116619595418353;
	378  :   01153738532092905209;
	379  :   16575790890089778896;
	380  :   17218917360458986000;
	381  :   17373784556258728203;
	382  :   02015557727569380315;
	383  :   15640474822489745394;
	384  :   01668303273641507841;
	385  :   18016656984061310488;
	386  :   18156237803028815095;
	387  :   16717652052969720552;
	388  :   00649062630432439024;
	389  :   15424837623201728768;
	390  :   00649059348996953845;
	391  :   00359740306442554853;
	392  :   17793152572246065396;
	393  :   16719903891843449853;
	394  :   00070944918454605579;
	395  :   17580367411561432556;
	396  :   17296060130965712100;
	397  :   00505227817302553609;
	398  :   18227467413272922883;
	399  :   15778920971665082620;
	400  :   18154290451835834580;
	401  :   00579781276763487762;
	402  :   18088412216595844864;
	403  :   17356018703531310079;
	404  :   02376736224765799157;
	405  :   16359599425087669235;
	406  :   00650158787624897272;
	407  :   16790263921447929558;
	408  :   01157653746884937737;
	409  :   12401234526981783044;
	410  :   17798483081958656216;
	411  :   18089551357650798829;
	412  :   00642601865666297601;
	413  :   16719331106532099327;
	414  :   17140131807223948776;
	415  :   18374385291131951103;
	416  :   18304893771675599106;
	417  :   17508584660668315905;
	418  :   17065809137698281961;
	419  :   17652399836588930309;
	420  :   17939258773376071676;
	421  :   17134779131250470890;
	422  :   16281919971807530743;
	423  :   17069193485942516720;
END;
