WIDTH=32;
DEPTH=106;

ADDRESS_RADIX=UNS;
DATA_RADIX=UNS;

CONTENT BEGIN
	000  :   4294958336;
	001  :   4294962816;
	002  :   0000009856;
	003  :   0000010624;
	004  :   0000007936;
	005  :   0000012160;
	006  :   4294962176;
	007  :   4294955008;
	008  :   0000013696;
	009  :   0000010752;
	010  :   4294965248;
	011  :   0000030976;
	012  :   4294964096;
	013  :   4294964608;
	014  :   0000010112;
	015  :   4294960512;
	016  :   0000010752;
	017  :   0000001920;
	018  :   0000008192;
	019  :   0000009728;
	020  :   0000010240;
	021  :   0000011520;
	022  :   0000006912;
	023  :   4294959744;
	024  :   4294956160;
	025  :   0000008960;
	026  :   0000010624;
	027  :   0000011520;
	028  :   0000009472;
	029  :   0000006912;
	030  :   0000009344;
	031  :   0000008192;
	032  :   4294819840;
	033  :   4294919168;
	034  :   4294805120;
	035  :   4294557568;
	036  :   4294811264;
	037  :   4294731776;
	038  :   4294865280;
	039  :   4294803584;
	040  :   4294737920;
	041  :   4294714112;
	042  :   4294673408;
	043  :   4294768128;
	044  :   4294806912;
	045  :   4294841728;
	046  :   4294809984;
	047  :   4294744064;
	048  :   4294739712;
	049  :   4294786048;
	050  :   4294678272;
	051  :   4294812672;
	052  :   4294921472;
	053  :   4294771968;
	054  :   4294853504;
	055  :   4294835200;
	056  :   4294679552;
	057  :   4294738432;
	058  :   4294640384;
	059  :   4294742656;
	060  :   4294888448;
	061  :   4294765184;
	062  :   4294838400;
	063  :   4294541312;
	064  :   4294337664;
	065  :   4294688256;
	066  :   4294613760;
	067  :   4294805376;
	068  :   4294683008;
	069  :   4294715776;
	070  :   4294628736;
	071  :   4294584960;
	072  :   4294663936;
	073  :   4294520832;
	074  :   4294878720;
	075  :   4294686592;
	076  :   4294403072;
	077  :   4294530176;
	078  :   4294612352;
	079  :   4294711680;
	080  :   4294571136;
	081  :   4294678016;
	082  :   4294507264;
	083  :   4294773120;
	084  :   4294616576;
	085  :   4294370048;
	086  :   4294748032;
	087  :   4294764928;
	088  :   4294809984;
	089  :   4294747648;
	090  :   4294340992;
	091  :   4294666880;
	092  :   4294734336;
	093  :   4294662016;
	094  :   4294598528;
	095  :   4294839936;
	096  :   4294268416;
	097  :   4294488320;
	098  :   4294800512;
	099  :   4294466688;
	100  :   4294639872;
	101  :   4294612480;
	102  :   4294239488;
	103  :   4294727040;
	104  :   4294547584;
	105  :   4294293760;
END;
