:10000000004040408040C040004140418041C041EC
:10001000004240428042C042FF423F437F43BF43D1
:10002000FF433E447E44BE44FD443D457D45BC45C2
:10003000FC453B467A46BA46F94638477747B647C5
:10004000F54734487348B248F14830496E49AD49E4
:10005000EB492A4A684AA64AE54A234B614B9F4B23
:10006000DC4B1A4C584C954CD34C104D4E4D8B4D8F
:10007000C84D054E424E7F4EBB4EF84E344F714F29
:10008000AD4FE94F255061509C50D85014514F51FD
:100090008A51C55100523B527652B152EB52255310
:1000A00060539A53D4530D5447548154BA54F35463
:1000B0002C5565559E55D6550F5647567F56B75603
:1000C000EF5627575F579657CD5704583B587258ED
:1000D000A858DF5815594B598159B759ED59225A2B
:1000E000575A8C5AC15AF65A2A5B5F5B935BC75BBF
:1000F000FB5B2F5C625C955CC95CFC5C2E5D615DAA
:10010000935DC65DF85D2A5E5B5E8D5EBE5EEF5EF2
:10011000205F515F815FB25FE25F12604260726098
:10012000A160D060FF602E615D618C61BA61E861A1
:100130001662446271629F62CC62F9622663526306
:100140007F63AB63D76303642E645A648564B064D1
:10015000DB64066530655A658465AE65D865026600
:100160002B6654667D66A666CE66F7661F67476790
:100170006F679667BE67E5670C6833685A68806882
:10018000A668CC68F26818693D6963698869AD69D9
:10019000D269F6691B6A3F6A636A876AAA6ACE6A8D
:1001A000F16A146B376B5A6B7C6B9F6BC16BE36BA3
:1001B000056C266C486C696C8A6CAB6CCC6CEC6C16
:1001C0000D6D2D6D4D6D6D6D8D6DAC6DCB6DEA6DE5
:1001D000096E286E476E656E846EA26EC06EDD6E0F
:1001E000FB6E186F366F536F706F8C6FA96FC66F91
:1001F000E26FFE6F1A70367051706D708870A37068
:10020000BE70D970F3700E71287142715C71767195
:100210009071A971C371DC71F5710E7227723F7212
:10022000587270728872A072B872D072E872FF72DF
:1002300016732E7345735B73727389739F73B573F3
:10024000CC73E273F7730D74237438744E74637453
:1002500078748D74A274B674CB74DF74F3740775FC
:100260001B752F75437557756A757E759175A475E5
:10027000B775CA75DC75EF75027614762676387612
:100280004A765C766E7680769176A376B476C5767D
:10029000D676E776F876097719772A773A774A7724
:1002A0005B776B777B778B779A77AA77B977C97704
:1002B000D877E777F777067814782378327841781B
:1002C0004F785D786C787A7888789678A478B27868
:1002D000C078CD78DB78E878F678037910791D79E5
:1002E0002A793779447950795D796A797679827992
:1002F0008F799B79A779B379BF79CB79D779E2796F
:10030000EE79F979057A107A1C7A277A327A3D7A71
:10031000487A537A5E7A687A737A7E7A887A937AA0
:100320009D7AA77AB17ABC7AC67AD07AD97AE37AFA
:10033000ED7AF77A007B0A7B147B1D7B267B307B72
:10034000397B427B4B7B547B5D7B667B6F7B787B11
:10035000807B897B927B9A7BA37BAB7BB37BBC7BD3
:10036000C47BCC7BD47BDC7BE47BEC7BF47BFC7BB5
:10037000037C0B7C137C1A7C227C297C317C387CAE
:100380003F7C477C4E7C557C5C7C637C6A7C717CCA
:10039000787C7F7C867C8C7C937C9A7CA07CA77C00
:1003A000AD7CB47CBA7CC17CC77CCD7CD37CDA7C50
:1003B000E07CE67CEC7CF27CF87CFE7C037D097DB5
:1003C0000F7D157D1A7D207D267D2B7D317D367D2F
:1003D0003C7D417D467D4C7D517D567D5B7D617DC3
:1003E000667D6B7D707D757D7A7D7F7D847D897D69
:1003F0008D7D927D977D9C7DA07DA57DAA7DAE7D26
:10040000C03F803F403F003FC03E803E403E003EF8
:10041000C03D803D403D013DC13C813C413C013CF3
:10042000C23B823B423B033BC33A833A443A043AE1
:10043000C539863946390739C83889384A380B38BA
:10044000CC378D374E370F37D03692365336153678
:10045000D63598355A351B35DD349F346134243414
:10046000E633A8336B332D33F032B2327532383283
:10047000FB31BE31813145310831CC308F305330C2
:100480001730DB2F9F2F642F282FEC2EB12E762EC6
:100490003B2E002EC52D8A2D4F2D152DDB2CA02C8B
:1004A000662C2C2CF32BB92B7F2B462B0D2BD42A0F
:1004B0009B2A622A2A2AF129B92981294929112945
:1004C000D928A1286A283328FC27C5278E27582732
:1004D0002127EB26B5267F2649261326DE25A925CA
:1004E00074253F250A25D624A1246D24392405240A
:1004F000D1239E236B2337230423D2229F226D22F4
:100500003A220822D621A521732142211121E0207F
:10051000AF207F204E201E20EE1FBE1F8E1F5F1FAC
:10052000301F011FD21EA31E741E461E181EEA1D78
:10053000BC1D8F1D611D341D071DDA1CAE1C811CE6
:10054000551C291CFD1BD21BA61B7B1B501B251BEE
:10055000FA1AD01AA61A7C1A521A281AFE19D51994
:10056000AC1983195A1932190919E118B9189118D7
:100570006A1842181B18F417CD17A61780175A17B8
:1005800034170E17E816C3169D16781653162E1636
:100590000A16E515C1159D157915561532150F1555
:1005A000EC14C914A614841461143F141D14FB1315
:1005B000DA13B81397137613551334131413F31275
:1005C000D312B31293127312541235121612F7117A
:1005D000D811B9119B117C115E1140112311051125
:1005E000E810CA10AD109010741057103A101E1079
:1005F0000210E60FCA0FAF0F930F780F5D0F420F77
:10060000270F0D0FF20ED80EBE0EA40E8A0E700E1E
:10061000570E3D0E240E0B0EF20DD90DC10DA80D77
:10062000900D780D600D480D300D180D010DEA0C80
:10063000D20CBB0CA50C8E0C770C610C4B0C340C43
:100640001E0C090CF30BDD0BC80BB20B9D0B880BBA
:10065000730B5E0B4A0B350B210B0D0BF90AE50AE8
:10066000D10ABD0AA90A960A820A6F0A5C0A490AD7
:10067000360A240A110AFE09EC09DA09C809B60982
:10068000A409920980096F095D094C093B092A09EF
:1006900019090809F708E708D608C608B608A50822
:1006A0009508850875086608560847083708280819
:1006B00019080908FA07EC07DD07CE07BF07B107DD
:1006C000A3079407860778076A075C074E07400769
:1006D0003307250718070A07FD06F006E306D606C6
:1006E000C906BC06B006A30696068A067E067106F3
:1006F000650659064D064106350629061E061206F0
:100700000706FB05F005E405D905CE05C305B805C8
:10071000AD05A20598058D05820578056D05630573
:1007200059054F0544053A05300527051D051305F4
:1007300009050005F604EC04E304DA04D004C70458
:10074000BE04B504AC04A3049A0491048804800494
:1007500077046E0466045D0455044D0444043C04AF
:1007600034042C0424041C0414040C040404FD03A9
:10077000F503ED03E603DE03D703CF03C803C1038C
:10078000B903B203AB03A4039D0396038F0388034D
:1007900081037A0374036D036603600359035303F3
:1007A0004C0346033F03390333032D032603200381
:1007B0001A0314030E0308030203FD02F702F102F9
:1007C000EB02E602E002DA02D502CF02CA02C4025C
:1007D000BF02BA02B402AF02AA02A5029F029A02A5
:1007E000950290028B02860281027C0277027302DC
:1007F0006E026902640260025B02560252024D02FE
:00000001FF
